{"page":3,"total_results":151621,"total_pages":7582,"results":[{"vote_count":5132,"id":363088,"video":false,"vote_average":6.9,"title":"蚁人2：黄蜂女现身","popularity":52.305,"poster_path":"\/zj8uSEAyMKILMtIKLStn0ahjR91.jpg","original_language":"en","original_title":"Ant-Man and the Wasp","genre_ids":[28,12,878,35,10751],"backdrop_path":"\/6P3c80EOm7BodndGBUAJHHsHKrp.jpg","adult":false,"overview":"来自漫威电影宇宙的新片《蚁人2：黄蜂女现身》重点展现了两位超级英雄令人惊叹的收缩能力。继《美国队长3》的故事线之后，斯科特·朗迎来了自己作为超级英雄和孩子父亲的双重身份。一方面，他在背负着蚁人职责的同时努力过好自己的生活；另一方面，二代黄蜂女霍普·凡·戴恩和汉克·皮姆博士又向他传达了一项紧迫的新任务。斯科特必须再次穿上战衣，与黄蜂女并肩作战，共同破解来自过去的谜题。","release_date":"2018-07-06"},{"vote_count":39,"id":220882,"video":false,"vote_average":5.5,"title":"伦敦战场","popularity":51.476,"poster_path":"\/7OfQVm5GexlAREp8FoR4ILxp35T.jpg","original_language":"en","original_title":"London Fields","genre_ids":[80,9648,53,18],"backdrop_path":"\/ichPk1vuRGYN5OmdSYBfJu5bWgu.jpg","adult":false,"overview":"该片改编自马丁·艾米斯的同名小说，讲述了女主人公尼古拉六世有预知能力，她同时和三个男子交往，她确信自己会被其中一个男人杀害的故事。","release_date":"2018-10-26"},{"vote_count":7996,"id":122917,"video":false,"vote_average":7.2,"title":"霍比特人3：五军之战","popularity":51.259,"poster_path":"\/ljaEB2arx4LeyvIxRJ1cp38OVxL.jpg","original_language":"en","original_title":"The Hobbit: The Battle of the Five Armies","genre_ids":[28,12,14],"backdrop_path":"\/qhH3GyIfAnGv1pjdV3mw03qAilg.jpg","adult":false,"overview":"在上一部结尾处，比尔博一行人对巨龙史矛革声称将要重新收复自己的家园，但却不知不觉地被一股强大致命的力量推向世界黑暗的更深处，而巨龙史矛革的重现将自身无尽的愤怒对准了长湖镇的男女老少。索林迷恋自己收回的财富，他牺牲了队友的友谊，却把霍比特人推向了绝望与危险的境地，殊不知有更大的危险在前方等待。劲敌索伦派出了第四军团的半兽人在孤山秘密埋伏袭击，但只有灰袍巫师甘道夫洞悉了这一危险。面对不断高涨的黑暗势力的冲突，侏儒、精灵族以及人族必须决定是否联合，否则均将会被毁灭。比尔博在五军联合的史诗战中为自己的生命而决斗，而迷失的索林也将面对财富的欲望完成自我救赎。","release_date":"2014-12-17"},{"vote_count":1367,"id":424783,"video":false,"vote_average":6.5,"title":"大黄蜂","popularity":51.232,"poster_path":"\/bWwPm3R54Ww2xrUVjlB4JjcdQKz.jpg","original_language":"en","original_title":"Bumblebee","genre_ids":[28,12,878],"backdrop_path":"\/hMANgfPHR1tRObNp2oPiOi9mMlz.jpg","adult":false,"overview":"1987 年，正值青春期的少女 Charlie（海莉·斯坦菲尔德 饰）在 18 岁生日这天来到加州海边小镇的废弃车场，在这里发现了伤痕累累的变形金刚“大黄蜂”，大黄蜂受伤后变形甲壳虫，与女主 Charlie 开启了一段温暖轻松的全新生活。然而好景不长，军方和霸天虎阵营为寻找大黄蜂结成联盟，展开凶残追杀，身陷绝境的大黄蜂也切换至战斗模式，一场关乎地球和人类存亡的生死之战不可避免。","release_date":"2018-12-21"},{"vote_count":172,"id":399361,"video":false,"vote_average":6.3,"title":"三方国界","popularity":50.656,"poster_path":"\/aBw8zYuAljVM1FeK5bZKITPH8ZD.jpg","original_language":"en","original_title":"Triple Frontier","genre_ids":[28,12,53,80,18],"backdrop_path":"\/oAHrzWUakQoukH4Gt2UKdYXMSPH.jpg","adult":false,"overview":"　　本·阿弗莱克、奥斯卡·伊萨克、查理·汉纳姆、加内特·赫德兰、佩德罗·帕斯卡和亚德里亚·霍纳主演《三方国界》，J·C·尚多尔将用他在马克·鲍尔的基础上重写过的剧本执导。讲述五个朋友为扳倒一个大毒枭而再度联合起来，结果却导致一系列意想不到的后果。“三方国界”是指巴拉圭、阿根廷和巴西之间臭名昭著的边界地带，伊瓜苏河和巴拉那河在这里交汇，使这片区域难以监控，成为了有组织犯罪的庇护所。  　　本项目最早能追溯到2009年，当时还是凯瑟琳·毕格罗准备在《拆弹部队》之后拍摄的电影。2017年4月，据悉由于很不满意J·C·尚多尔改写过的剧本，汤姆·哈迪和查宁·塔图姆双双退出，当时距本片原定的开拍时间仅有四周。就在不到一个月后的5月初，外媒首次报道了Netflix有意接手该项目，并想邀请本·阿弗莱克与卡西·阿弗莱克兄弟补缺，与马赫沙拉·阿里共同主演。","release_date":"2019-03-06"},{"vote_count":167,"id":452832,"video":false,"vote_average":4.9,"title":"宁静","popularity":50.619,"poster_path":"\/pHfvh76WteKK4aCY9RKP6kDKr1X.jpg","original_language":"en","original_title":"Serenity","genre_ids":[53,18,9648,878],"backdrop_path":"\/oOROXoQ402tHgK6NowmMUSLffkW.jpg","adult":false,"overview":"　　男主Baker Dill是一名渔船船长，带队游览在宁静、热带的普利茅斯岛，而这种平静的生活在前妻Karen的到来后破碎了，她绝望地请求Baker拯救她和他们年幼的儿子于暴力的新任丈夫（杰森·克拉克 饰）的魔掌下，希望Baker能带他出海钓鱼游览，然后将其扔进海里喂鲨鱼。Karen的出现让Baker重新回到他尝试忘记的生活中，他在正确和错误中举棋不定，他的世界陷入了新的现实中，一切并不是自己所想像的那样。","release_date":"2019-01-25"},{"vote_count":249,"id":465914,"video":false,"vote_average":7.2,"title":"假若比尔街能说话","popularity":49.26,"poster_path":"\/8tZx0OX7kxv6F2VNWZoPr2bWDgE.jpg","original_language":"en","original_title":"If Beale Street Could Talk","genre_ids":[18,10749,80],"backdrop_path":"\/1BeMxME8SPuJgCTmyEBzGWSZrAR.jpg","adult":false,"overview":"　　《月光男孩》导演巴里·杰金斯日前敲定新片，他将把知名作家詹姆斯·鲍德温的小说《假若比尔街能够讲话》(If Beale Street Could Talk)搬上大银幕，故事设定于上世纪70年代的纽约哈林区，主角是一对刚订婚的年轻情侣芬尼(Fonny)和蒂什(Tish)。芬尼被诬告强奸，而身怀六甲的蒂什将四处奔走寻找证据证明丈夫的清白。梅根·埃里森创立的安纳普尔纳将投资本片，也将和《月光男孩》制片公司Plan B、杰金斯本人的Pastel工作室一同制作本片，10月开拍。","release_date":"2018-11-30"},{"vote_count":403,"id":522681,"video":false,"vote_average":6.3,"title":"密室逃生","popularity":49.205,"poster_path":"\/u5xRnBP6fjRyZEsw6IKMM12nW59.jpg","original_language":"en","original_title":"Escape Room","genre_ids":[27,53,28],"backdrop_path":"\/mWLljCmpqlcYQh7uh51BBMwCZwN.jpg","adult":false,"overview":"　　六位身份各异的陌生人，为赢取高额奖金，在神秘盒子的指引下受邀参与世界顶级密室逃脱游戏。谁知密室内布局精良机关重重，陷阱遍布杀机暗藏。是刺激游戏，还是博命赌局？谁在背后操控这一切？谁能够成功破解谜局，逃出生天？","release_date":"2019-01-04"},{"vote_count":848,"id":375588,"video":false,"vote_average":5.7,"title":"罗宾汉：起源","popularity":48.973,"poster_path":"\/l9yAWr505dyDLgLSOAsYRqbr3lh.jpg","original_language":"en","original_title":"Robin Hood","genre_ids":[12,28,53],"backdrop_path":"\/AuA50D7T7S7OEVcGo0ZKaMhERn0.jpg","adult":false,"overview":"由奥图·巴瑟赫斯特(《浴血黑帮》《黑镜》)执导，艾格顿饰演罗宾汉，剧情将发生在他成为传奇侠盗英雄之前，聚焦他作为十字军战士时期，加盟荒野沼地的一支反抗军大胆起义，扳倒腐败堕落的英国统治政权。杰米·福克斯将饰演罗宾汉的战友小约翰，伊芙·休森饰罗宾汉的情人梅德·玛丽安，杰米·多南饰威尔·斯加雷特，是罗宾汉同父异母\/同母异父的兄弟。Joby Harold(《亚瑟王:斗兽争霸》)操刀剧本，将于莱昂纳多·迪卡普里奥、珍妮佛·戴维森等联合制片。","release_date":"2018-11-21"},{"vote_count":18,"id":490033,"video":false,"vote_average":5.8,"title":"假期","popularity":47.977,"poster_path":"\/vlDRxVM3XCwq7ty9MmHoVeOcvWp.jpg","original_language":"en","original_title":"Holiday","genre_ids":[18],"backdrop_path":"\/ou0QMbeDPVY3wDsf3vLNaT7Y5ac.jpg","adult":false,"overview":"毒枭麦可带著年轻貌美的女友莎夏前往土耳其度过豪华假期。一行犯罪家族登陆港边城市，酒池肉林、挥金如土、夜夜笙歌，徜徉在麦可一手打造的极乐天堂中。但，欢娱的背面，也蒙上麦可暴力控制的阴影。当莎夏遇上荷兰帅哥汤玛士，麦可的暗黑性格也逐渐揭露；不可一世的大男人、温驯单纯的小男人以及难以捉摸的美人，一场超越争风吃醋的硬派斗争一触即发。　  瑞典女导演的第一部长片震惊影坛，大胆玩味性别暴力、人格黑暗。镜头语言精准，每一颗都饱含张力，兼具冶豔与紧挑神经的压迫感，捕捉夏日艳丽的氛围，一个瞬间又在缝隙中看见最黑的阴险。","release_date":"2018-01-21"},{"vote_count":10398,"id":284053,"video":false,"vote_average":7.5,"title":"雷神3：诸神黄昏","popularity":47.814,"poster_path":"\/r22taBGfkvI5pWc3o01U0lH3VVI.jpg","original_language":"en","original_title":"Thor: Ragnarok","genre_ids":[28,12,35,14,878],"backdrop_path":"\/kaIfm5ryEOwYg8mLbq8HkPuM1Fo.jpg","adult":false,"overview":"在“索科维亚战役”两年后，索尔（克里斯·海姆斯沃斯 饰）得知诸神黄昏的预言并希望全力阻止火焰巨人苏尔特尔毁灭阿斯加德。索尔与洛基（汤姆·希德勒斯顿 饰）在奇异博士（本尼迪克特·康伯巴奇 饰）的指引下找到了奥丁（安东尼·霍普金斯 饰）。奥丁向他们兄弟二人道出他们还有一位姐姐——“死亡女神”海拉（凯特·布兰切特 饰）。在一场战斗里雷神之锤被海拉所毁，索尔跌下彩虹桥而来到了萨卡星，成为阶下囚。失去了锤子的索尔被逼展开角斗士对决，而对手居然是自己的老战友绿巨人（马克·鲁弗洛 饰）。索尔必须与绿巨人、洛基等人并肩战斗，才能阻止海拉和即将到来的诸神黄昏。","release_date":"2017-11-03"},{"vote_count":10,"id":458723,"video":false,"vote_average":7.8,"title":"我们","popularity":47.254,"poster_path":"\/ux2dU1jQ2ACIMShzB3yP93Udpzc.jpg","original_language":"en","original_title":"Us","genre_ids":[53,27],"backdrop_path":"\/jNUCddkM1fjYcFIcEwFjc7s2H4V.jpg","adult":false,"overview":"　　一对名为阿德莱德和盖博的夫妻带着孩子到海滨度假，这里曾经是阿莱德莱童年的娱乐场所。在海滨与泰勒一家玩了一天之后，阿德莱德愈发地无法从往昔的伤痛中走出，他越来越觉得自己的家庭将要发生灾难。到了晚上，他们一家甚至看到有四个人手拉手在行车道上站立，似乎有更多诡异的事情等待着他们。","release_date":"2019-03-22"},{"vote_count":3,"id":429471,"video":false,"vote_average":4.3,"title":"Captive State","popularity":46.443,"poster_path":"\/wB24P3QGGoAkEyBzTEb5s4lFY7N.jpg","original_language":"en","original_title":"Captive State","genre_ids":[53,878],"backdrop_path":"\/6IZ84KFhNpy6htsJmwFVuK30pyp.jpg","adult":false,"overview":"","release_date":"2019-03-15"},{"vote_count":11107,"id":102899,"video":false,"vote_average":7.1,"title":"蚁人","popularity":45.772,"poster_path":"\/4JzUprUDucYG8iFYT0F6eTFHOAV.jpg","original_language":"en","original_title":"Ant-Man","genre_ids":[878,28,12],"backdrop_path":"\/kvXLZqY0Ngl1XSw7EaMQO0C1CCj.jpg","adult":false,"overview":"生化学家汉克打算用他最新发现的一组亚原子微粒，做一项可以改变大小的创造试验。结果中途出了些问题，拿自己做实验的汉克，竟然能够变得跟蚂蚁一样小。随后，他又发明了一项工具，帮助他跟蚂蚁们进行交流，甚至控制它们为自己所用。","release_date":"2015-07-17"},{"vote_count":11565,"id":283995,"video":false,"vote_average":7.7,"title":"银河护卫队2","popularity":44.449,"poster_path":"\/ajjbmuCciJi9PJFeAVkL0LpHqX.jpg","original_language":"en","original_title":"Guardians of the Galaxy Vol. 2","genre_ids":[28,12,35,878],"backdrop_path":"\/aJn9XeesqsrSLKcHfHP4u5985hn.jpg","adult":false,"overview":"火箭浣熊（布莱德利·库珀 Bradley Cooper 饰）偷走了大祭司阿耶莎（伊丽莎白·德比齐 Elizabeth Debicki 饰）的能量电池，包括星爵（克里斯·帕拉特 Chris Pratt 饰）、卡魔拉（佐伊·索尔达娜 Zoe Saldana 饰）、德拉克斯（戴夫·巴蒂斯塔 Dave Bautista 饰）在内的一行人遭到了后者派出的舰队的袭击。一个神秘人物乘坐着飞船救下了银河护卫队的众人，而驾驶着飞船的不是别人，竟然正是星爵的亲生父亲伊戈（库尔特·拉塞尔 Kurt Russell 饰）。 在伊戈的带领下，星爵、卡魔拉和德拉克斯来到了由伊戈一手制造的星球上，而剩下的成员们则着手修复损坏的飞船。那边厢，阿耶莎委托勇度（迈克尔·鲁克 Michael Rooker 饰）抓住星爵替自己报仇，而卡魔拉亦渐渐发现了伊戈和善面目下隐藏的巨大阴谋。","release_date":"2017-05-05"},{"vote_count":388,"id":457136,"video":false,"vote_average":6.6,"title":"玛丽女王","popularity":42.981,"poster_path":"\/q6JJqTM1zOG9lnfQOIwzzfLuwAm.jpg","original_language":"en","original_title":"Mary Queen of Scots","genre_ids":[18,36],"backdrop_path":"\/iv5N169nQIzrS0pZ8MBEiemTtVt.jpg","adult":false,"overview":"影片描述魅力十足的玛丽斯图亚特，惊涛骇浪般的一生。她在16岁那年成为法国王后，年仅18岁就成为寡妇，随后，玛丽力拒再婚的压力，决定重返她的故乡苏格兰，重新夺回她的王位。但是苏格兰和英格兰当时却由强势的伊莉莎白一世统治，这对年轻的女王都对她们的“姊妹”感到害怕与着迷。她们不但是权力和爱情方面的对手，也同为身处于男人世界的女性君主，她们必须决定应该选择婚姻或是独立自主。玛丽一心想要成为不仅是拥有虚名的女王，于是决定主张她拥有英格兰王位的继承权，直接威胁伊莉莎白一世的统治权。这两个宫廷内充满各种背叛、叛乱和阴谋诡计，不但危及她们各自的王位，也改变了历史。  西尔莎·罗南饰演玛丽，她在幼年时就被带到法国与亨利二世的长子弗朗西斯订婚。但弗朗西斯在继位一年后就去世，玛丽顶住压力、拒绝再婚。她回到了苏格兰，想要重新获得自己的王冠，但是这时候的苏格兰与英格兰一起都在伊丽莎白（玛歌特·罗比）的统治之下。通过努力，玛丽拿回了王室地位，但这也对伊丽莎白的统治造成了威胁。","release_date":"2018-12-21"},{"vote_count":14637,"id":1726,"video":false,"vote_average":7.5,"title":"钢铁侠","popularity":42.677,"poster_path":"\/12jZwVzjXlrywTY59IaTtDMI7eD.jpg","original_language":"en","original_title":"Iron Man","genre_ids":[28,878,12],"backdrop_path":"\/ZQixhAZx6fH1VNafFXsqa1B8QI.jpg","adult":false,"overview":"------斯塔克军火公司是美军在全球范围内第一大军火供应商，其新任掌门人托尼•斯塔克（Robert Downey Jr. 小罗伯特•唐尼 饰）风流倜傥，天资聪颖。他与公司元老俄巴迪亚•斯坦合作无间，共同将斯塔克公司的业务推向顶峰。现实生活中的托尼热衷收集名贵跑车，搞点儿发明创造，当然露水姻缘更不可少。所幸他身边有维吉尼亚•波茨（Gwyneth Paltrow 格温妮斯•帕特洛 饰）这样的好助手细心打理一切，才让他能自由自在过着贵公子的生活。在前往中东为军方展示新型武器的途中，托尼一众遭到恐怖分子袭击。他被弹片击中险些丧命，在英森博士的帮助下，托尼体内移植了一颗核动力的人工心脏。他和英森虚与委蛇，暗中制造了一套由聚变能源驱动的钢铁盔甲。穿上盔甲托尼大闹恐怖分子的基地，回到美国后接下来有更为黑暗的阴谋等着他……","release_date":"2008-05-02"},{"vote_count":13837,"id":120,"video":false,"vote_average":8.3,"title":"指环王：护戒使者","popularity":42.563,"poster_path":"\/fsqtBFVeLydYY7dYqzhFAAauKFH.jpg","original_language":"en","original_title":"The Lord of the Rings: The Fellowship of the Ring","genre_ids":[12,14,28],"backdrop_path":"\/pIUvQ9Ed35wlWhY2oU6OmwEsmzG.jpg","adult":false,"overview":"本片是新西兰鬼才导演彼得杰克森结合最新电影特效的魔幻新作，根据托尔金畅销全球的经典小说《指环王》三部曲改编，并以三部曲的方式拍摄，《护戒使者》描述史前世界中，一位名叫弗拉多·巴金斯的年轻人，无意中得到了一枚魔戒。 这只戒指拥有无穷的神秘力量，戒指原来是黑暗君王索隆所有的，却意外地到了弗拉多手里。弗拉多决定将戒指摧毁，以免索隆夺回去巩固自己的势力。索隆为了阻止弗拉多，于是派出了手下的奥克斯加以追杀，一场正邪大战眼看着一触即发。","release_date":"2001-12-19"},{"vote_count":5762,"id":11036,"video":false,"vote_average":7.8,"title":"恋恋笔记本","popularity":42.259,"poster_path":"\/gMfstesBXKdsHToAUXVPHujUDfb.jpg","original_language":"en","original_title":"The Notebook","genre_ids":[10749,18],"backdrop_path":"\/AprhfmDEwy14xyjaAlcwdLolLjq.jpg","adult":false,"overview":"　　一个浸润着鲜红与纯白的爱情故事，写在一本洒满昏黄的笔记本上，被一位老先生(詹姆斯•加纳饰)，一遍一遍的讲述。老太太(吉娜•罗兰饰)总是静静的听着，好奇的追问结果。在一家疗养院，这样不变的场景每天都会上演。笔记本上，秀美的字迹，记载着发生在那个夏天的爱情。艾莉(蕾切尔•麦克亚当斯饰)是富有人家的千金，她随家人来到小镇避暑。在一个充满梦幻的游乐场，邂逅了诺亚(莱安•高斯利饰)。诺亚没有钱，却活的很快乐。艾莉在他那学会了自由，得到了欢笑，两人很快热恋起来。然而在艾莉父母的阻挠下，相爱的两个人，就被分开在夏天结束的那一刻。随着诺亚的365封信被偷偷藏起，艾莉在7年后终于放弃了等待。就在她要步入教堂的前一天，突然在报纸上看到了诺亚曾许诺给自己建造的白色房子。一切记忆，全部苏醒……也许，应该苏醒的，不是故事中的，而是听故事的人。","release_date":"2004-06-25"},{"vote_count":1572,"id":375262,"video":false,"vote_average":7.7,"title":"宠儿","popularity":42.146,"poster_path":"\/9zJfvW4JXYUa6a7s0vmiQU6lkbc.jpg","original_language":"en","original_title":"The Favourite","genre_ids":[18,36,35],"backdrop_path":"\/ekWMoBZ4B9rM60INZEh5FAD2HFR.jpg","adult":false,"overview":"设定在18世纪早期的英格兰，讲述关于宫廷阴谋、激情、嫉妒和背叛的故事：大不列颠王国的安妮女王(科尔曼)与她的知己、顾问、秘密情人公爵夫人Sarah Churchill(薇姿)的关系因后者的一位年轻远方亲戚(斯通)到来而被搅得翻天地覆，各位女性为争夺女王的青睐和获得宫廷影响力而展开了激烈的斗争。","release_date":"2018-11-23"}]}
